Calculate effect sizes from a dataset for multiple series — batch_calc_ES • SingleCaseES
…
# Aggregate across phase-pairs
batch_calc_ES(dat = Schmidt2007,
              grouping = c(Behavior_type, Case_pseudonym),
              aggregate = Phase_num,
              weighting = "1/V",
              condition = Condition,
              outcome = Outcome,
              ES = c("LRRi", "LRRd", "SMD", "Tau"),
              improvement = direction,
              scale = "count",
              bias_correct = TRUE,
              confidence = NULL,
              format = "long")
#> # A tibble: 24 × 5
#>    Behavior_type       Case_pseudonym ES       Est     SE
#>    <chr>               <chr>          <chr>  <dbl>  <dbl>
#>  1 Disruptive Behavior Albert         LRRd  -1.63  0.245 
#>  2 Disruptive Behavior Albert         LRRi   1.63  0.245 
#>  3 Disruptive Behavior Albert         SMD    1.35  0.341 
#>  4 Disruptive Behavior Albert         Tau    0.942 0.0697
#>  5 Disruptive Behavior Faith          LRRd  -1.26  0.183 
#>  6 Disruptive Behavior Faith          LRRi   1.26  0.183 
#>  7 Disruptive Behavior Faith          SMD    1.07  0.303 
#>  8 Disruptive Behavior Faith          Tau    0.930 0.117 
#>  9 Disruptive Behavior Lilly          LRRd  -1.64  0.195 
#> 10 Disruptive Behavior Lilly          LRRi   1.64  0.195 
#> # … with 14 more rows
…
