Calculate phase pair numbers — calc_phase_pairs • SingleCaseES
…
library(dplyr)
#> 
#> Attaching package: ‘dplyr’
#> The following objects are masked from ‘package:stats’:
#> 
#>     filter, lag
#> The following objects are masked from ‘package:base’:
#> 
#>     intersect, setdiff, setequal, union
Schmidt2007 %>% 
  group_by(Behavior_type, Case_pseudonym) %>%
  mutate(phase_pair = calc_phase_pairs(Condition))
#> # A tibble: 172 × 14
#> # Groups:   Behavior_type, Case_pseudonym [6]
#>    Behavior_type  Procedure Metric Session_length Interval_length Case_pseudonym
#>    <chr>          <chr>     <chr>           <int>           <int> <chr>         
#>  1 Disruptive Be… Event co… count              10              NA Faith         
#>  2 Disruptive Be… Event co… count              10              NA Faith         
#>  3 Disruptive Be… Event co… count              10              NA Faith         
#>  4 Disruptive Be… Event co… count              10              NA Faith         
#>  5 Disruptive Be… Event co… count              10              NA Faith         
#>  6 Disruptive Be… Event co… count              10              NA Faith         
#>  7 Disruptive Be… Event co… count              10              NA Faith         
#>  8 Disruptive Be… Event co… count              10              NA Faith         
#>  9 Disruptive Be… Event co… count              10              NA Faith         
#> 10 Disruptive Be… Event co… count              10              NA Faith         
#> # … with 162 more rows, and 8 more variables: Session_number <int>,
#> #   Phase <chr>, Condition <chr>, Outcome <dbl>, Phase_num <int>,
#> #   direction <chr>, n_Intervals <dbl>, phase_pair <int>
…
